==============================================================================
                        Stonehenge - MyMUSH v0.1
==============================================================================
connect <name> <password>               login to existing character
create  <name> <password>               create new character

WHO                                     list of currently connected characters
QUIT                                    disconnect
==============================================================================

